{
  "APP": "/app",
  "APP_ATTRACTLOOP": "/app/attractloop",
  "APP_SCAN": "/app/scan",
  "APP_DELIVERYINFO": "/app/deliveryinfo",
  "APP_PARCELSUMMARY": "/app/parcelsummary",
  "APP_CUSTOMSFORM": "/app/customsform",
  "APP_IDSCAN": "/app/idscan",
  "APP_SPEEDOPTION": "/app/speedoption",
  "APP_PAYMENTSUMMARY": "/app/paymentsummary",
  "APP_PAYMENTDETAILS": "/app/paymentdetails",
  "APP_PAYMENTREVIEWANDCONFIRM": "/app/paymentreviewandconfirm",
  "APP_PAYMENAPPROVED": "/app/paymentapproved"
}